0.815323 6
1.93386 10
2.03386 11
2.13386 12
2.23386 12
2.33386 14
2.43386 14
2.53386 14
2.63386 14
2.73386 15
2.83386 15
2.93386 15
3.03386 16
3.13386 16
3.23386 16
3.33386 18
3.43386 19
3.53386 19
3.63386 18
3.73386 17
3.83386 17
3.93386 16
4.03386 17
4.13386 18
4.23386 18
4.33386 18
4.43386 17
4.53386 19
4.63386 18
4.73386 19
4.83386 19
4.93386 20
5.03386 19
5.13386 19
5.23386 21
5.33386 21
5.43386 20
5.53386 17
5.63386 16
5.73386 16
5.83386 19
5.93386 15
6.03386 28
6.13386 26
6.23386 34
6.33386 44
6.43386 45
6.53386 52
6.63386 45
6.73386 53
6.83386 61
6.93386 61
7.03386 52
7.13386 61
7.23386 61
7.33386 46
7.43386 45
7.53386 37
7.63386 46
7.73386 60
7.83386 123
7.93386 125
8.03386 96
8.13386 57
8.23386 52
8.33386 61
8.43386 62
8.53386 89
8.63386 115
8.73386 115
8.83386 89
8.93386 72
9.03386 104
9.13386 136
9.23386 132
9.33386 98
9.43386 130
9.53386 99
9.63386 203
9.73386 203
9.83386 203
9.93386 203
10.0009 203
